Perform repeated sampling — rep_sample_n • infer
…
# take 1000 samples of size n = 50, without replacement
slices <- gss %>%
  rep_sample_n(size = 50, reps = 1000)

slices
#> # A tibble: 50,000 x 12
#> # Groups:   replicate [1,000]
#>    replicate  year   age sex   college partyid hompop hours income class finrela
#>        <int> <dbl> <dbl> <fct> <fct>   <fct>    <dbl> <dbl> <ord>  <fct> <fct>  
#>  1         1  2000    26 fema… degree  ind          2    25 $8000… work… below …
#>  2         1  2000    41 male  no deg… rep          1    45 $2500… work… average
#>  3         1  2014    22 fema… no deg… dem          1    25 $2500… work… below …
#>  4         1  2006    22 male  no deg… ind          2    15 $1500… work… average
#>  5         1  1989    56 male  no deg… dem          1    56 $2000… midd… average
#>  6         1  1998    51 male  no deg… dem          1    40 $1500… work… below …
#>  7         1  2000    30 male  degree  dem          2    42 $2500… midd… average
#>  8         1  1988    22 male  no deg… dem          4    40 $2500… midd… below …
#>  9         1  2016    23 fema… no deg… ind          4    15 $2000… work… below …
#> 10         1  1988    40 male  no deg… dem          5    50 $2500… work… below …
#> # … with 49,990 more rows, and 1 more variable: weight <dbl>
…
